Combines Changepoint Analysis with ggplot2 • ggchangepoint
…
Use cpt_methods() to see all available and planned methods with their engine packages and installation status:

cpt_methods()
#> # A tibble: 26 × 6
#>    method   change_in          engine         status    target_release installed
#>    <chr>    <chr>              <chr>          <chr>     <chr>          <lgl>    
#>  1 pelt     mean, var, meanvar changepoint    available <NA>           TRUE     
#>  2 binseg   mean, var, meanvar changepoint    available <NA>           TRUE     
#>  3 segneigh mean, var, meanvar changepoint    available <NA>           TRUE     
#>  4 amoc     mean, var, meanvar changepoint    available <NA>           TRUE     
#>  5 np       distribution       changepoint.np available <NA>           TRUE     
#>  6 ecp      distribution       ecp            available <NA>           TRUE     
#>  7 fpop     mean               fpop           available <NA>           TRUE     
#>  8 wbs      mean               wbs            available <NA>           TRUE     
#>  9 wbs2     mean               breakfast      available <NA>           TRUE     
#> 10 not      mean, var, slope   not            available <NA>           TRUE     
#> # ℹ 16 more rows
…
