…
  `TRUE` if the engine package is installed, `FALSE` if it is a
  `Suggests` engine that is missing, `NA` for planned methods.

- target_release:

  The release that plans to wire this method, or `NA` for currently
  available methods.

## Examples

``` r
cpt_methods()
#> Warning: no DISPLAY variable so Tk is not available
#> # A tibble: 26 × 6
#>    method   change_in          engine         status    target_release installed
#>    <chr>    <chr>              <chr>          <chr>     <chr>          <lgl>    
#>  1 pelt     mean, var, meanvar changepoint    available NA             TRUE     
#>  2 binseg   mean, var, meanvar changepoint    available NA             TRUE     
#>  3 segneigh mean, var, meanvar changepoint    available NA             TRUE     
#>  4 amoc     mean, var, meanvar changepoint    available NA             TRUE     
#>  5 np       distribution       changepoint.np available NA             TRUE     
#>  6 ecp      distribution       ecp            available NA             TRUE     
#>  7 fpop     mean               fpop           available NA             TRUE     
#>  8 wbs      mean               wbs            available NA             TRUE     
#>  9 wbs2     mean               breakfast      available NA             TRUE     
#> 10 not      mean, var, slope   not            available NA             TRUE     
#> # ℹ 16 more rows
```
