ggchangepoint: A Unified Tidy Interface for Changepoint Analysis in R • ggchangepoint
…
generics::glance(res)
#> # A tibble: 1 × 9
#>       n n_changepoints method change_in penalty_type penalty_value cp_convention
#>   <int>          <int> <chr>  <chr>     <chr>                <dbl> <chr>        
#> 1   200              1 pelt   mean      MBIC                    NA left         
#> # ℹ 2 more variables: total_cost <dbl>, runtime <dbl>

augment() returns the original data
augmented with segment identifiers, fitted segment-level parameter
estimates, residuals, and a logical flag indicating changepoint
positions:

generics::augment(res)
#> # A tibble: 200 × 6
#>    index  value seg_id .fitted .resid is_changepoint
#>    <int>  <dbl>  <int>   <dbl>  <dbl> <lgl>         
#>  1     1  0.900      1   0.139  0.761 FALSE         
#>  2     2 -1.17       1   0.139 -1.31  FALSE         
#>  3     3 -0.897      1   0.139 -1.04  FALSE         
#>  4     4 -1.44       1   0.139 -1.58  FALSE         
#>  5     5 -0.331      1   0.139 -0.470 FALSE         
#>  6     6 -2.90       1   0.139 -3.04  FALSE         
#>  7     7 -1.06       1   0.139 -1.20  FALSE         
#>  8     8  0.278      1   0.139  0.139 FALSE         
#>  9     9  0.749      1   0.139  0.611 FALSE         
#> 10    10  0.242      1   0.139  0.103 FALSE         
#> # ℹ 190 more rows
…
